[
  {
    "ten": "Và Em Sẽ Đến - Be With You",
    "hinh": "https://static.fptplay.net/static/img/share/video/07_10_2019/jse5vi2xkihnfdymb0jo1yxouyl07-10-2019_02g19-07.jpg",
    "link": "oDWP1yD+Hi/J5rTjW1oqGvuIn39Z7NN8ja/EGJFwTXo="
  },
  {
    "ten": "Dạ Quỷ - Rampant",
    "hinh": "https://static.fptplay.net/static/img/share/video/07_10_2019/ylxu65occyxu3tz00ccetfwgfja07-10-2019_02g27-12.jpg",
    "link": "O3+Y8ETHN7P3a4fkhx1E0tPlyk7iA6ngqJfEwnbbKCo="
  },
  {
    "ten": "Tây Du Ký Ngoại Truyện - Journey to the West: Conquering the Demons",
    "hinh": "https://static.fptplay.net/static/img/share/video/07_10_2019/60y6nxoxiqphacyhmow5fo4eco507-10-2019_02g35-57.jpg",
    "link": "iexgGpmOHAWcReMIyRGyWsH/LILNZ400sh2lCwphHVU="
  },
  {
    "ten": "Bụi Đời Gangnam - Gangnam 1970",
    "hinh": "https://static.fptplay.net/static/img/share/video/04_10_2019/4wye5gz6hsnrvevwhaqlxjlmxod04-10-2019_16g02-45.jpg",
    "link": "gWtcM89wRDhppTQUmZZACnrPCQiWQXw7eJu4YLQ8nJI="
  },
  {
    "ten": "Lớp Học 101 - Architecture 101",
    "hinh": "https://static.fptplay.net/static/img/share/video/07_10_2019/ydv1lrqdm5poye8ss1ri0k9bupt07-10-2019_02g30-53.jpg",
    "link": "DsVtahl5ifmt4/JAeRqH60U3vbTg+SSF+fQVznzr7w8="
  },
  {
    "ten": "Người Vô Danh Tính - The Man From Nowhere",
    "hinh": "https://static.fptplay.net/static/img/share/video/31_10_2016/the-man-from-nowhere-55508ab36896031-10-2016_12g04-26.jpg",
    "link": "ecPUPdJP2aVq0sTWHmNSeY4CJkEMgmedFtnLILgqSBw="
  },
  {
    "ten": "Ngày Mưa - My Rainy Days",
    "hinh": "https://static.fptplay.net/static/img/share/video/27_11_2014/mrdx27-11-2014_17g27-05.jpg",
    "link": "wUNtAZWBQlrisWn9as6Z/FqrAEOHBrGMCgCaMtXEI5Y="
  },
  {
    "ten": "Nữ Đặc Công Ameera - Ameera",
    "hinh": "https://static.fptplay.net/static/img/share/video/03_06_2014/ameera-2014_6234140108729603-06-2014_17g59-19.jpg",
    "link": "+pXDrfxhFomkG1IiuI6H/Ybf3JNRzkoHYZrU7Y/qiSc="
  },
  {
    "ten": "Nghệ Thuật Quyến Rũ - Art of Seduction",
    "hinh": "https://static.fptplay.net/static/img/share/video/17_03_2014/art-of-seduction17-03-2014_10g21-45.jpg",
    "link": "Aea+Vjm3X8YeA5ImmA9mCyVQqE25sQtLrUD67qsx4MU="
  },
  {
    "ten": "Đội Chống Tham Nhũng - Z Storm",
    "hinh": "https://static.fptplay.net/static/img/share/video/05_10_2019/untitled-105-10-2019_16g59-49.jpg",
    "link": "X+rBZPX4JQbV1nZ4Js0j+HN4ySMfbIuC2NEd3Nrar7Y="
  },
  {
    "ten": "Quốc Sản 007 - From Beijing With Love",
    "hinh": "https://static.fptplay.net/static/img/share/video/11_11_2016/20150523fbwl1994w_611-11-2016_09g34-39.png",
    "link": "9UiYDbpZ18eknF/Qa1T0mJYh/B7XJZHdR8ELl3BYTMQ="
  },
  {
    "ten": "Tình Bạn - Friend",
    "hinh": "https://static.fptplay.net/static/img/share/video/15_11_2016/framsrntnulfwd398espk4krcxj15-11-2016_10g22-18.jpg",
    "link": "B1CW6lerZ+fwwkKu+Z5L4L49RLiYGdhYlH1p+YkmcuM="
  },
  {
    "ten": "Yêu Em Từ Cái Nhìn Đầu Tiên (Bản điện ảnh) - Love O2O - Just One Smile is Very Alluring",
    "hinh": "https://static.fptplay.net/static/img/share/video/01_08_2019/zn4pcffnvslziyaxoqebekovrmc01-08-2019_17g05-14.jpg",
    "link": "SKtpHVajBW1G8dYp9DbkbMjA+kqye28w3TrV6j4Mg7I="
  },
  {
    "ten": "Tuyển Tập Chung Tử Đơn - Series Donnie Yen",
    "hinh": "https://static.fptplay.net/static/img/share/video/08_01_2016/imgpsh_fullsize08-01-2016_10g27-03.jpg",
    "link": "xRYczMCaD9KIoz2cJRDMIuOLNdjL1sS7euWkcWedu8Y="
  },
  {
    "ten": "Chuyện Tình Kỳ Quái Của Tôi - My Awkward Sexual Adventure",
    "hinh": "https://static.fptplay.net/static/img/share/video/19_05_2019/r7xaywjhsuxxnva2l0itvroeycc19-05-2019_15g08-59.jpg",
    "link": "4kwsmHsPwYmWfaoR+5mgmUaS4BVo6Rg5VwpPtl5ybNU="
  },
  {
    "ten": "Tuyệt Đỉnh Công Phu - Kung Fu Hustle",
    "hinh": "https://static.fptplay.net/static/img/share/video/08_05_2019/ezgifcom-webp-to-jpg08-05-2019_18g20-07.jpg",
    "link": "Z+ZuGZEl5VFMhySq8LyceCdn+wJkM5WcHJz7abwm5xY="
  },
  {
    "ten": "Hợp Đồng Giết Thuê - Fatal Contact",
    "hinh": "https://static.fptplay.net/static/img/share/video/25_02_2014/hop-dong-giet-thue-fatal-contact25-02-2014_11g29-56.jpg",
    "link": "4sX3d0Mf4aaBGIE6mySUkk2oRe1JB7igZUC2zXCNUfk="
  },
  {
    "ten": "Ông Bố 19 Tuổi - Baby And I",
    "hinh": "https://static.fptplay.net/static/img/share/video/13_06_2014/jang-geun-suk-toh13-06-2014_09g00-38.jpg",
    "link": "470nCJMe0NWGhzI2vUo6Or4buLQ5nAMKUxUPjMlikUc="
  },
  {
    "ten": "Tây Du Ký: Đại Thánh Trở Về - Monkey King: Hero Is Back",
    "hinh": "https://static.fptplay.net/static/img/share/video/28_09_2015/3wepq6y728-09-2015_09g18-47.jpg",
    "link": "jBhWTpzpKk3JEK6ex6kjpeaTW392/Ym1xqcJ14dT34o="
  },
  {
    "ten": "Tội Ác Ghê Tởm - I Saw The Devil",
    "hinh": "https://static.fptplay.net/static/img/share/video/12_11_2018/vz3lzdcjlaeai4imdpktozthxs912-11-2018_18g26-11.jpg",
    "link": "Slz3wxGxm+LaJ+yCwhZdYVf19XhJlu2sSG6iWrDr0tA="
  },
  {
    "ten": "Cô Gái Bá Đạo - Lady Furious",
    "hinh": "https://static.fptplay.net/static/img/share/video/06_03_2015/lady-furious-2012_4394137559987706-03-2015_14g51-52.jpg",
    "link": "CSeykugCLWNFDnvBlEkSj8U+TIAMBOuQlUXClzDEfMQ="
  },
  {
    "ten": "Diệp Vấn 3 - Ip Man 3",
    "hinh": "https://static.fptplay.net/static/img/share/video/10_03_2016/2yh54iai10-03-2016_14g19-48.jpg",
    "link": "CpPz1fTppjBhHZQTRvJp1Jlfyejc+GIigLyo7+sP7vQ="
  },
  {
    "ten": "Tên Cậu Là Gì? - Your Name",
    "hinh": "https://static.fptplay.net/static/img/share/video/28_07_2017/mmtuybq6hl24fxo0f3z4j2kg7kz28-07-2017_14g08-03.jpg",
    "link": "wSnAaKMMJCW7Xh/BjVLLD2mJXrTBXnAU687TULpvyAQ="
  },
  {
    "ten": "Phi Vụ Tình Ái - A Secret Affair",
    "hinh": "https://static.fptplay.net/static/img/share/video/30_12_2014/asa30-12-2014_15g38-57.jpg",
    "link": "X/F6kds9HZKaHt6C30dHnUQj6dQZSD2MOQldJUU8JMw="
  },
  {
    "ten": "Tinh Võ Môn 1995 - Fist Of Fury",
    "hinh": "https://static.fptplay.net/static/img/share/video/03_02_2015/fof03-02-2015_11g04-39.jpg",
    "link": "J2sySL+Zv6yOgqvSdxVIadtKckURR4YsFpPLNVS4G9Y="
  },
  {
    "ten": "Định Luật Hấp Dẫn - The Law Of Attraction",
    "hinh": "https://static.fptplay.net/static/img/share/video/31_01_2019/seeu9dtqofo9ojmjgnu1xw4itqs31-01-2019_03g20-46.jpg",
    "link": "d/AaZudTcX3kHFkNCzWTZ3J0w1lLtWh+Unea9vvcENo="
  },
  {
    "ten": "Ngọn Gió Yêu Thương - Windstruck",
    "hinh": "https://static.fptplay.net/static/img/share/video/20_03_2014/edjuttfw4pbqnjqf5iyk6ihceuq20-03-2014_15g37-00.jpg",
    "link": "GG1Jf/bfB8aAgO2IrbGu3IM0IQbA44U1e4HQ+YS0NOk="
  },
  {
    "ten": "Chung Cư Quỷ Ám - Rigor Mortis",
    "hinh": "https://static.fptplay.net/static/img/share/video/27_12_2018/brlbubrl1l9y3whzbmohbldwggt27-12-2018_10g44-34.jpg",
    "link": "7PuyuyS6tdiH2sqwdBEDbgY37JOXLBVfcN3aPVAmKXE="
  },
  {
    "ten": "Đội Chống Tham Nhũng 2 - S Storm",
    "hinh": "https://static.fptplay.net/static/img/share/video/06_12_2016/p237744749706-12-2016_16g39-38.jpg",
    "link": "rioWmosiKSf+j4w51LF4Q/Lcz9x2BaJpYKMZWz11WIc="
  },
  {
    "ten": "Thanh Xà Bạch Xà - The Sorcerer and the White Snake",
    "hinh": "https://static.fptplay.net/static/img/share/video/19_09_2015/dc1k4ety19-09-2015_21g16-25.jpg",
    "link": "MJfEuK0WX7R1SY8qaqWo5lFhEBWpOwRd3ilrZcluBVw="
  }
]