{
  "email": "xaviadev@gmail.com",
  "enable": true,
  "later": 0,
  "trigger": 15,
  "interval": 5,
  "minCode": 0,
  "ads": {
    "items": 8,
    "ids": {
      "admob": {
        "b": "",
        "m": "",
        "n": "",
        "p": "",
        "r": ""
      },
      "rxadmob": {
        "b": "",
        "m": "",
        "n": "",
        "p": "",
        "r": ""
      },
      "fan": {
        "b": "n_448317596038795_450065885863966,448317596038795_448321426038412",
        "m": "448317596038795_448322326038322",
        "n": "448317596038795_448320209371867",
        "p": "448317596038795_448321889371699",
        "r": ""
      },
      "startapp": "207129026",
      "unity": "1502445"
    },
    "delay": 3600000,
    "type": {
      "b": "fan,unity,startapp",
      "n": "fan,startapp",
      "p": {
        "net": "",
        "click": "fan,unity,startapp",
        "close": "",
        "lock": "",
        "load": "",
        "switch": "",
        "gift": "",
        "boot": "",
        "open": "fan,unity,startapp"
      }
    },
    "priority": "fan,admob,unity,startapp",
    "random": false
  },
  "update": {
    "f": true,
    "ver": 1,
    "des": "1.Ultraviolet (UV) index#2.Sunrise and sunset time#3.7-day forecast#4.Daily temperature predictions, with daily highs and lows",
    "apk": "app.apk"
  },
  "more": {
    "img": "https://lh3.googleusercontent.com/NfLEMSmww5h3HsdkZJL7wQ8cNoo_eYpRkvsw0mGK19OxEdBVd7ckBHGGGHhXh5vwa7aj=s180-rw",
    "title": "Bóng đá TiVi",
    "des": "Nếu bạn là một fan bóng đá, điện ảnh đừng bỏ qua ứng dụng này.",
    "id": "com.pvmedia.bongdatv.v2"
  },
  "app": {
    "sim": "vn",
    "resource": "7,4",
    "policy": "https://sites.google.com/view/appspro-privacy"
  }
}
